digraph G {
node0 [shape="box" color="steelblue" style="filled" label="VFXValue`1 Float2 ((1.0, 1.0))
Count_a"]
node1 [shape="box" color="steelblue" style="filled" label="VFXValue`1 Float2 ((0.0, 0.0))
Delay_a"]
node2 [shape="box" color="steelblue" style="filled" label="VFXValue`1 Float3 ((0.0, 1.0, 0.0))
bounds_center"]
node3 [shape="box" color="steelblue" style="filled" label="VFXValue`1 Float3 ((2.0, 3.0, 2.0))
bounds_size"]
node4 [shape="box" color="steelblue" style="filled" label="VFXValue`1 Float (0,1)
A_a"]
node5 [shape="box" color="steelblue" style="filled" label="VFXValue`1 Float (0,2)
B_a"]
node6 [shape="box" color="cyan" style="filled" label="VFXBuiltInExpression Float (DeltaTime)
deltaTime_a"]
node7 [shape="box" color="steelblue" style="filled" label="VFXValue`1 Float (4)
Size_b"]
node8 [shape="box" color="cyan" style="filled" label="VFXExpressionBakeCurve Float4
Size_c"]
node9 [shape="box" color="lightslategray" style="filled" label="VFXValue`1 Curve (UnityEngine.AnimationCurve)"]
node10 [shape="box" color="steelblue" style="filled" label="VFXValue`1 Float3 ((1.0, 1.0, 1.0))
Color_d"]
node11 [shape="box" color="cyan" style="filled" label="VFXExpressionBakeGradient Float
Color_e"]
node12 [shape="box" color="lightslategray" style="filled" label="VFXValue`1 ColorGradient (UnityEngine.Gradient)"]
node13 [shape="box" color="steelblue" style="filled" label="VFXTexture2DValue Texture2D (Default-Particle (UnityEngine.Texture2D))
mainTexture"]
node9 -> node8 
node12 -> node11 
}
