%YAML 1.1
%TAG !u! tag:unity3d.com,2011:
--- !u!114 &11400000
MonoBehaviour:
  m_ObjectHideFlags: 0
  m_CorrespondingSourceObject: {fileID: 0}
  m_PrefabInstance: {fileID: 0}
  m_PrefabAsset: {fileID: 0}
  m_GameObject: {fileID: 0}
  m_Enabled: 1
  m_EditorHideFlags: 0
  m_Script: {fileID: 11500000, guid: f30b114fc2b0ed4459712361510d3ca6, type: 3}
  m_Name: DefaultWarriorStats
  m_EditorClassIdentifier: 
  _maxHealth: 110
  _damage: 25
  _gravity: -10
  _attackRate: 2
  _movementSpeed: 8
  _attackMovementSpeed: 2
  _staggeredMovementSpeed: 0
  _attackArea: 1.2
  _rangeToAttack: 3
